ru/itis/javalab/util/EmailUtilFakeImpl.class
ru/itis/javalab/models/User$UserBuilder.class
ru/itis/javalab/dto/MethodLogDto.class
ru/itis/javalab/validation/ValidNames.class
ru/itis/javalab/models/User.class
ru/itis/javalab/config/HttpSessionApplicationInitializer.class
ru/itis/javalab/services/SignUpService.class
ru/itis/javalab/models/State.class
ru/itis/javalab/security/config/MessageSecurityWebApplicationInitializer.class
ru/itis/javalab/security/details/UserDetailsImpl.class
ru/itis/javalab/controllers/UsersController.class
ru/itis/javalab/dto/UserDto.class
ru/itis/javalab/repositories/MethodCallLogRepository.class
ru/itis/javalab/controllers/SignUpController.class
ru/itis/javalab/validation/PasswordValidator.class
ru/itis/javalab/controllers/RootController.class
ru/itis/javalab/validation/ValidNames$List.class
ru/itis/javalab/util/EmailUtilImpl.class
ru/itis/javalab/dto/MethodLogDto$MethodLogDtoBuilder.class
ru/itis/javalab/config/ApplicationConfig.class
ru/itis/javalab/config/LocalizationConfig.class
ru/itis/javalab/services/SignUpServiceImpl.class
ru/itis/javalab/services/UsersServiceImpl.class
ru/itis/javalab/models/MethodLog.class
ru/itis/javalab/models/Role.class
ru/itis/javalab/models/ConfirmState.class
ru/itis/javalab/controllers/ProfileController.class
ru/itis/javalab/aspects/MethodCallLogAspect.class
ru/itis/javalab/controllers/ConfirmController.class
ru/itis/javalab/dto/UserSignUpForm.class
ru/itis/javalab/controllers/SignInController.class
ru/itis/javalab/models/MethodLog$MethodLogBuilder.class
ru/itis/javalab/util/FreeMarkerMailGeneratorImpl.class
ru/itis/javalab/dto/UserDto$UserDtoBuilder.class
ru/itis/javalab/services/MethodCallLogServiceImpl.class
ru/itis/javalab/validation/NamesValidator.class
ru/itis/javalab/security/details/UserDetailsServiceImpl.class
ru/itis/javalab/repositories/UsersRepository.class
ru/itis/javalab/util/EmailUtil.class
ru/itis/javalab/security/config/WebSecurityConfig.class
ru/itis/javalab/config/SnakeCasePhysicalNamingStrategy.class
ru/itis/javalab/services/MethodCallLogService.class
ru/itis/javalab/util/MailGenerator.class
ru/itis/javalab/dto/UserSignInForm.class
ru/itis/javalab/config/ApplicationInitializer.class
ru/itis/javalab/validation/ValidPassword.class
ru/itis/javalab/services/UsersService.class
